,Width##LENGTH##INCHES,Height##LENGTH##INCHES,Designation##OTHER##,Type Comments##OTHER##,. . Lights Wide##OTHER##,. . Lights High##OTHER##,Fractional Lights Wide##OTHER##,Fractional Lights High##OTHER##
"53-1/2"" x 11-1/2""",53.5,11.5,100TT1610-3,Fibrex fixed transom window,2,1,2,1
"53-1/2"" x 17-1/2""",53.5,17.5,100TT1616-3,Fibrex fixed transom window,2,2,2,2
"53-1/2"" x 23-1/2""",53.5,23.5,100TT1620-3,Fibrex fixed transom window,2,2,2,2
"71-1/2"" x 11-1/2""",71.5,11.5,100TT2010-3,Fibrex fixed transom window,2,1,2,1
"71-1/2"" x 17-1/2""",71.5,17.5,100TT2016-3,Fibrex fixed transom window,2,2,2,2
"71-1/2"" x 23-1/2""",71.5,23.5,100TT2020-3,Fibrex fixed transom window,2,2,2,2
"89-1/2"" x 11-1/2""",89.5,11.5,100TT2610-3,Fibrex fixed transom window,3,1,3,1
"89-1/2"" x 17-1/2""",89.5,17.5,100TT2616-3,Fibrex fixed transom window,3,2,3,2
"89-1/2"" x 23-1/2""",89.5,23.5,100TT2620-3,Fibrex fixed transom window,3,2,3,2
"107-1/2"" x 11-1/2""",107.5,11.5,100TT3010-3,Fibrex fixed transom window,3,1,3,1
"107-1/2"" x 17-1/2""",107.5,17.5,100TT3016-3,Fibrex fixed transom window,3,2,3,2
"107-1/2"" x 23-1/2""",107.5,23.5,100TT3020-3,Fibrex fixed transom window,3,2,3,2
"125-1/2"" x 11-1/2""",125.5,11.5,100TT3610-3,Fibrex fixed transom window,4,1,4,1
"125-1/2"" x 17-1/2""",125.5,17.5,100TT3616-3,Fibrex fixed transom window,4,2,4,2
"125-1/2"" x 23-1/2""",125.5,23.5,100TT3620-3,Fibrex fixed transom window,4,2,4,2
"143-1/2"" x 11-1/2""",143.5,11.5,100TT4010-3,Fibrex fixed transom window,4,1,4,1
"143-1/2"" x 17-1/2""",143.5,17.5,100TT4016-3,Fibrex fixed transom window,4,2,4,2
"143-1/2"" x 23-1/2""",143.5,23.5,100TT4020-3,Fibrex fixed transom window,4,2,4,2
